{
  "packageName": "com.ss.android.ugc.aweme",
  "taskId": 1020,
  "title": "抖音搜索任务",
  "type": "all_dy_mkt_search_task",
  "des": "2021-3-1",
  "limitRunCount": 2000,
  "limitRunTime": 300000,
  "textMap": {
    "targetUserName": "Braincharging",
    "targetVideoUnion": "阿尔法脑电波合集",
    "targetVideoTitle": "第19集 | 大人小孩长期坚持听 #阿尔发脑波音乐 ，激活大脑潜力，提高#专注力和#创造力",
    "sectionCount1": "100",
    "sectionCount2": "10000",
    "sectionOrder1": "order",
    "sectionOrder2": "random",
    "userName": "",
    "userComment": ""
  },
  "textListMap": {
    "clickUserName": null,
    "sectionMessage1": [
      "第1批私信内容,你1",
      "第1批私信内容,你2",
      "第1批私信内容,你3"
    ],
    "sectionMessage2": [
      "第2批私信内容,他1",
      "第2批私信内容,他2",
      "第2批私信内容,他3"
    ]
  },
  "textParam": {
    "tailList": [
      "你",
      "他"
    ],
    "tailUpList": [
      [
        "ni",
        "尼"
      ],
      [
        "ta",
        "祂"
      ]
    ]
  },
  "wordList": [
    "感觉你每次分享到内容都好棒",
    "谢谢你的分享，感觉非常好",
    "好喜欢你的视频",
    "我是你的忠实粉丝",
    "期待你的内容越来越好",
    "每天都期待你的新作品",
    "每一期都好用心啊",
    "这次视频用心了",
    "又是一次美好分享",
    "哈哈哈，你的视频很不错",
    "你的每个视频我都喜欢",
    "希望你的作品越来越棒",
    "一直关注你，每个作品都超赞",
    "你的视频号，我每期必看",
    "希望越来越多的人喜欢你的视频",
    "你的视频总有一种美好的感觉",
    "用心做视频的你也要注意休息哦",
    "这期视频超赞",
    "这期视频肯定花了不少心思",
    "终于等到你更新了，很棒",
    "很少有你这样用心做视频的人",
    "你的视频让人很舒服",
    "这是一个对我有帮助的视频",
    "我也想做和你这类的视频",
    "很棒，点赞",
    "必须给你赞一个",
    "我转发给我朋友看了",
    "你的作品是一种享受",
    "你的作品越来越专业了",
    "谢谢你的分享，我朋友也很喜欢你的作品",
    "文采斐然",
    "辞藻华美",
    "语言朴实",
    "文笔清新",
    "情感丰富",
    "人物形象饱满",
    "条理清晰",
    "结构层次分明",
    "情节合理",
    "跌宕起伏",
    "描写生动",
    "引人入胜",
    "艺术感染力强",
    "结尾画龙点睛",
    "寓意深刻",
    "发人深思",
    "意味悠长"
  ],
  "actionList": [
    {
      "title": "启动",
      "checkId": 9990000,
      "enable": true
    },
    {
      "title": "main",
      "start": "1000",
      "enable": true,
      "group": "unit1",
      "checkId": 1000010
    },
    {
      "title": "home",
      "start": "300",
      "enable": true,
      "group": "unit1",
      "checkId": 1000020
    },
    {
      "title": "搜索",
      "start": "300",
      "enable": true,
      "group": "unit1",
      "checkId": 1000030
    },
    {
      "title": "input",
      "start": "300",
      "group": "unit1",
      "checkId": 1000040
    },
    {
      "title": "search",
      "start": "300",
      "group": "unit1",
      "checkId": 1000050
    },
    {
      "title": "用户",
      "start": "1000",
      "group": "unit1",
      "checkId": 1000060
    },
    {
      "title": "first",
      "des": "盲点搜索结果第一个",
      "group": "unit1",
      "start": "1000",
      "checkId": 1000070
    },
    {
      "title": "switch",
      "start": "1000",
      "des": "切换分支,有合集/无合集",
      "enable": true,
      "group": "unit1",
      "checkId": 1000080
    },
    {
      "actionId": 510,
      "title": "合集",
      "des": "有合集分支",
      "start": "1000",
      "group": "unit1;union",
      "enable": false,
      "checkId": 1000090
    },
    {
      "title": "视频",
      "start": "1000",
      "group": "unit1;union",
      "checkId": 1000100
    },
    {
      "actionId": 610,
      "title": "video",
      "des": "无合集分支",
      "start": "1000",
      "group": "unit1;video",
      "enable": false,
      "checkId": 1000110
    },
    {
      "actionId": 710,
      "des": "视频界面,打开评论对话框",
      "title": "dialog",
      "start": "300",
      "checkId": 1000210
    },
    {
      "actionId": 810,
      "des": "评论对话框,循环点击用户",
      "title": "user",
      "start": "1000",
      "checkId": 1000220
    },
    {
      "title": "menu",
      "start": "1000",
      "checkId": 1000310
    },
    {
      "title": "发私信",
      "start": "300",
      "checkId": 1000320
    },
    {
      "title": "输入",
      "start": "300",
      "checkId": 1000330
    },
    {
      "title": "发送",
      "start": "300",
      "checkId": 1000340
    },
    {
      "des": "回退到评论列表",
      "title": "Goto",
      "start": "300",
      "checkId": 1000290
    }
  ],
  "backActionList": [
    {
      "title": "关闭抖音[发现通讯录好友]",
      "checkId": 9990005
    },
    {
      "title": "解除抖音[上滑查看更多视频]",
      "checkId": 9990006
    },
    {
      "title": "关闭抖音[检测到更新]",
      "checkId": 9990007
    },
    {
      "title": "关闭抖音[允许访问]",
      "checkId": 9990008
    },
    {
      "title": "关闭抖音[悬浮窗功能]",
      "checkId": 9990011
    },
    {
      "title": "关闭抖音极速版[个人信息保护指引]",
      "checkId": 9990012
    },
    {
      "title": "关闭抖音无关界面",
      "checkId": 9990009
    },
    {
      "title": "关闭抖音[悬浮窗播放功能上线啦]",
      "checkId": 9990014
    },
    {
      "title": "back抖音无关界面",
      "checkId": 9990010
    }
  ]
}