{
  "signCount": 100,
  "inviteCount": 800,
  "signUpCount": 1000,
  "actionConsumeCount": 10,
  "manualCode": true,
  "qq": "664738095",
  "edgeVersion": "88.0.705.53",
  "startUrl": "https://www.gdzwfw.gov.cn",
  "startLeftUrl": "https://www.qiushibaike.com",
  "payUrl": "http://amra.gitee.io/pay/index.html",
  "payCodeUrl": "https://gitee.com/angcyo/res/raw/master/code/all_in2.jpg",
  "payInfo": "充值:\n1元 = 100点\n10元 = 1100点\n100元 = 13000点"
}