{
  "code": 200,
  "version": 1,
  "des": "支持的应用列表",
  "time": "2021-2-4",
  "data": [
    {
      "packageName": "com.ss.android.ugc.aweme",
      "label": "抖音",
      "iconUrl": "https://gitee.com/angcyo/png/raw/master/acc/logo/douyin_logo.png",
      "type": 1,
      "enable": false,
      "hide": true,
      "main": true
    },
    {
      "packageName": "com.smile.gifmaker",
      "label": "快手",
      "iconUrl": "https://gitee.com/angcyo/png/raw/master/acc/logo/kuaishou_logo.png",
      "type": 2,
      "enable": false,
      "hide": true,
      "main": true
    },
    {
      "packageName": "com.tencent.mm",
      "label": "微信",
      "iconUrl": "https://gitee.com/angcyo/png/raw/master/acc/logo/weixin_logo.png",
      "type": 3,
      "main": true
    }
  ]
}