{
  "uuid": "e6b1d0ecede64f79b1f62a233ccbd1c7",
  "packageName": "com.ss.android.ugc.aweme",
  "title": "抖音视频评论列表挨个点赞",
  "des": "2023-09-10",
  "textMap": {
    "url": "https://v.douyin.com/AYEbbRw/",
    "searchWord": "华为",
    "interval": "10~15",
    "likeCount": ".:<10"
  },
  "textListMap": {
    "ignoreUserName": [
    ],
    "clickUserName": [
    ],
    "ignoreVideoTitle": []
  },
  "actionList": [
    {
      "title": "回到桌面",
      "summary": "准备",
      "start": "300,",
      "checkId": 900300
    },
    {
      "title": "启动抖音",
      "summary": "启动",
      "checkId": 900001,
      "start": "600,",
      "enable": false,
      "autoEnable": true,
      "group": "searchWord",
      "conditionList": [
        {
          "textMapList": [
            "searchWord"
          ]
        }
      ]
    },
    {
      "title": "回到抖音首页",
      "summary": "首页",
      "checkId": 110000,
      "group": "searchWord",
      "start": "1500"
    },
    {
      "title": "首页Tab",
      "summary": "Tab",
      "checkId": 110011,
      "group": "searchWord",
      "start": "600"
    },
    {
      "title": "右上角搜索",
      "summary": "搜索",
      "checkId": 160100,
      "group": "searchWord",
      "start": "600"
    },
    {
      "title": "输入搜索关键字",
      "summary": "输入",
      "checkId": 160200,
      "group": "searchWord",
      "start": "600"
    },
    {
      "title": "点击搜索",
      "summary": "搜索",
      "checkId": 160220,
      "group": "searchWord",
      "start": "1500"
    },
    {
      "title": "切换到视频Tab",
      "summary": "视频",
      "checkId": 160310,
      "group": "searchWord",
      "start": "1500"
    },
    {
      "actionId": 3000,
      "title": "确保在视频Tab页",
      "summary": "check",
      "checkId": 160311,
      "group": "searchWord",
      "start": "1500"
    },
    {
      "title": "循环点击视频",
      "summary": "pick",
      "checkId": 160320,
      "group": "searchWord",
      "start": "600",
      "relyList": [
        3091
      ]
    },
    {
      "title": "打开视频地址url",
      "summary": "url",
      "start": "300,",
      "enable": false,
      "autoEnable": true,
      "checkId": 900104,
      "conditionList": [
        {
          "textMapList": [
            "url"
          ]
        }
      ]
    },
    {
      "title": "检查视频,决定要不要采集",
      "summary": "check",
      "checkId": 120120,
      "start": "1600",
      "relyList": [
        3000
      ]
    },
    {
      "title": "弹出视频评论对话框",
      "summary": "评论",
      "checkId": 120400,
      "start": "1300"
    },
    {
      "actionId": 1000,
      "title": "循环点赞评论列表用户的评论",
      "summary": "点赞",
      "checkId": 1000222,
      "start": "600"
    },
    {
      "actionId": 2000,
      "title": "继续, 点赞下一个用户",
      "summary": "next",
      "start": "$[interval]",
      "check": {
        "handle": [
          {
            "actionList": [
              "jump:1000"
            ]
          }
        ]
      },
      "conditionList": [
        {
          "actionJumpList": [
            ".:<$[likeCount]"
          ]
        }
      ]
    },
    {
      "title": "用于跳到搜索的视频列表",
      "summary": "跳转",
      "checkId": 900610,
      "group": "searchWord",
      "start": "600",
      "relyList": [
        3000
      ],
      "conditionList": [
        {
          "actionJumpList": [
            "2000:<$[likeCount]"
          ]
        }
      ]
    },
    {
      "actionId": 3091,
      "title": "点赞结束",
      "summary": "end",
      "checkId": 900510,
      "start": "160,"
    }
  ],
  "backActionList": [
    {
      "title": "关闭抖音[发现通讯录好友]",
      "summary": "back",
      "checkId": 101000
    },
    {
      "title": "解除抖音[上滑查看更多视频]",
      "summary": "back",
      "checkId": 101001
    },
    {
      "title": "关闭抖音[检测到更新]",
      "summary": "back",
      "checkId": 101002
    },
    {
      "title": "关闭抖音[允许访问]",
      "summary": "back",
      "checkId": 101003
    },
    {
      "title": "关闭抖音[青少年模式]",
      "summary": "关闭",
      "checkId": 101004
    },
    {
      "title": "关闭抖音无关界面",
      "summary": "back",
      "checkId": 101100
    },
    {
      "title": "back抖音无关界面",
      "summary": "back",
      "checkId": 101101
    }
  ]
}
