{
  "uuid": "b624fe3dcca743359d4d5101c54cdc89",
  "packageName": "com.ss.android.ugc.aweme",
  "title": "抖音视频评论列表挨个私信",
  "des": "2023-03-26",
  "textMap": {
    "url": "https://v.douyin.com/AYEbbRw/",
    "interval": "10~15",
    "jumpCount": ".:<10"
  },
  "textListMap": {
    "ignoreUserName": [
    ],
    "clickUserName": [
    ],
    "message": [
      "鼓掌~",
      "鼓掌~~",
      "鼓掌~~~",
      "鼓掌~~~~"
    ]
  },
  "actionList": [
    {
      "title": "回到桌面",
      "summary": "准备",
      "start": "300,",
      "checkId": 900300
    },
    {
      "title": "打开视频地址url",
      "summary": "url",
      "start": "300,",
      "checkId": 900104
    },
    {
      "title": "弹出评论框",
      "summary": "评论",
      "checkId": 120400,
      "start": "1300"
    },
    {
      "actionId": 1000,
      "title": "循环点击用户,打开用户主页",
      "summary": "主页",
      "checkId": 1000220,
      "start": "600"
    },
    {
      "title": "menu",
      "start": "600",
      "checkId": 1000310
    },
    {
      "title": "发私信",
      "start": "600",
      "checkId": 1000320
    },
    {
      "title": "输入",
      "start": "600",
      "checkId": 1000332
    },
    {
      "title": "发送",
      "start": "600",
      "checkId": 1000340
    },
    {
      "title": "回到评论列表",
      "summary": "back",
      "checkId": 1000290,
      "start": "300,"
    },
    {
      "title": "继续, 点击下一个用户",
      "summary": "next",
      "start": "$[interval]",
      "check": {
        "handle": [
          {
            "actionList": [
              "jump:1000"
            ]
          }
        ]
      },
      "conditionList": [
        {
          "actionJumpList": [
            "$[jumpCount]"
          ]
        }
      ]
    }
  ],
  "backActionList": [
    {
      "title": "关闭抖音[发现通讯录好友]",
      "summary": "back",
      "checkId": 101000
    },
    {
      "title": "解除抖音[上滑查看更多视频]",
      "summary": "back",
      "checkId": 101001
    },
    {
      "title": "关闭抖音[检测到更新]",
      "summary": "back",
      "checkId": 101002
    },
    {
      "title": "关闭抖音[允许访问]",
      "summary": "back",
      "checkId": 101003
    },
    {
      "title": "关闭抖音[青少年模式]",
      "summary": "关闭",
      "checkId": 101004
    },
    {
      "title": "关闭抖音无关界面",
      "summary": "back",
      "checkId": 101100
    },
    {
      "title": "back抖音无关界面",
      "summary": "back",
      "checkId": 101101
    }
  ]
}
