[
  {
    "checkId": 101000,
    "des": "用于关闭抖音[发现通讯录好友]",
    "event": [
      {
        "textList": [
          "发现通讯录好友"
        ]
      },
      {
        "textList": [
          "发现通讯录朋友"
        ]
      },
      {
        "textList": [
          "好友推荐"
        ]
      }
    ],
    "handle": [
      {
        "findList": [
          {
            "textList": [
              "取消"
            ]
          },
          {
            "textList": [
              "拒绝"
            ]
          }
        ],
        "actionList": [
          "click"
        ]
      },
      {
        "findList": [
          {
            "textList": [
              "好友推荐"
            ]
          }
        ],
        "actionList": [
          "back"
        ]
      }
    ]
  },
  {
    "checkId": 101001,
    "des": "用于解除抖音[上滑查看更多视频]",
    "event": [
      {
        "textList": [
          "上滑查看更多视频"
        ]
      }
    ],
    "handle": [
      {
        "actionList": [
          "notTouchable:true",
          "sleep:300",
          "fling:0.5,0.5-0.5,0.3",
          "sleep:360",
          "notTouchable"
        ],
        "ignore": true
      }
    ]
  },
  {
    "checkId": 101002,
    "des": "用于关闭抖音[检测到更新]",
    "event": [
      {
        "textList": [
          "检测到更新"
        ]
      }
    ],
    "handle": [
      {
        "findList": [
          {
            "textList": [
              "以后再说"
            ]
          }
        ],
        "actionList": [
          "click"
        ]
      }
    ]
  },
  {
    "checkId": 101003,
    "des": "用于关闭抖音[允许访问]",
    "event": [
      {
        "textList": [
          "允许访问"
        ]
      }
    ],
    "handle": [
      {
        "findList": [
          {
            "textList": [
              "允许"
            ],
            "stateList": [
              "clickable"
            ]
          }
        ],
        "actionList": [
          "click"
        ]
      }
    ]
  },
  {
    "checkId": 101004,
    "des": "用于关闭抖音[青少年模式]",
    "event": [
      {
        "textList": [
          "青少年模式"
        ]
      }
    ],
    "handle": [
      {
        "findList": [
          {
            "textList": [
              "我知道了"
            ],
            "stateList": [
              "clickable"
            ]
          }
        ],
        "actionList": [
          "click"
        ]
      }
    ]
  },
  {
    "checkId": 101100,
    "des": "用于关闭抖音无关界面",
    "event": [
      {
        "textList": [
          "用户服务协议",
          "隐私政策"
        ]
      },
      {
        "textList": [
          "青少年模式"
        ]
      },
      {
        "textList": [
          "通讯录好友"
        ]
      },
      {
        "textList": [
          "^继续观看$"
        ]
      },
      {
        "textList": [
          "表情推荐功能升级"
        ]
      }
    ],
    "handle": [
      {
        "findList": [
          {
            "textList": [
              "^好的$"
            ]
          }
        ],
        "actionList": [
          "click"
        ]
      },
      {
        "findList": [
          {
            "textList": [
              "^我知道了$"
            ]
          }
        ],
        "actionList": [
          "click"
        ]
      },
      {
        "findList": [
          {
            "textList": [
              "^跳过"
            ]
          }
        ],
        "actionList": [
          "click"
        ]
      },
      {
        "findList": [
          {
            "textList": [
              "^继续观看$"
            ]
          }
        ],
        "actionList": [
          "click"
        ]
      },
      {
        "findList": [
          {
            "textList": [
              "^暂时不要$"
            ]
          }
        ],
        "actionList": [
          "click"
        ]
      }
    ]
  },
  {
    "checkId": 101101,
    "des": "用于back抖音无关界面",
    "event": [
      {
        "textList": [
          "手机通讯录"
        ]
      },
      {
        "textList": [
          "好友活跃状态"
        ]
      },
      {
        "textList": [
          "^设置抖音号$"
        ]
      },
      {
        "textList": [
          "^赠送$"
        ]
      },
      {
        "textList": [
          "^关注后.+"
        ]
      },
      {
        "textList": [
          "欢迎体验抖音浅色模式"
        ]
      }
    ],
    "handle": [
      {
        "actionList": [
          "back"
        ]
      }
    ]
  },
  {
    "checkId": 101102,
    "des": "用于关闭抖音悬浮窗提示",
    "event": [
      {
        "textList": [
          "悬浮窗.*功能"
        ]
      }
    ],
    "handle": [
      {
        "findList": [
          {
            "textList": [
              "暂不使用"
            ]
          }
        ],
        "actionList": [
          "click"
        ]
      }
    ]
  },
  {
    "checkId": 101201,
    "des": "用于关闭抖音极速版[个人信息保护指引]",
    "event": [
      {
        "textList": [
          "个人信息保护指引"
        ]
      }
    ],
    "handle": [
      {
        "findList": [
          {
            "textList": [
              "同意"
            ],
            "stateList": [
              "clickable"
            ],
            "index": "-1"
          }
        ],
        "actionList": [
          "click"
        ]
      }
    ]
  },
  {
    "checkId": 101202,
    "des": "用于关闭抖音极速版[恭喜完成任务]",
    "event": [
      {
        "textList": [
          "完成任务"
        ]
      }
    ],
    "handle": [
      {
        "actionList": [
          "back"
        ]
      }
    ]
  },
  {
    "checkId": 101500,
    "des": "用于关闭抖音[悬浮窗播放功能上线啦]",
    "event": [
      {
        "textList": [
          "悬浮窗播放功能上线啦"
        ]
      }
    ],
    "handle": [
      {
        "findList": [
          {
            "textList": [
              "暂不使用"
            ]
          }
        ],
        "actionList": [
          "click"
        ]
      }
    ]
  }
]