{
  "code": 200,
  "msg": "请求成功",
  "version": 1,
  "data": {
    "requestTaskDelay": 16,
    "requestTaskDelayOnError": 10000,
    "requestTaskDelayScreenOff": 5000,
    "high": 800,
    "medium": 1200,
    "low": 1500,
    "other": 2000,
    "mainAppCount": 1,
    "leaveRestartTime": 10
  }
}
